…
There is no difference in survival rate between numerical and
non-numerical tickets.

We have also divided each class further.

``` r
train %>% 
  
  distinct(Ticket_group)
```

    ## # A tibble: 43 × 1
    ##    Ticket_group
    ##    <chr>       
    ##  1 A/5         
    ##  2 PC          
    ##  3 STON/O2     
    ##  4 1           
    ##  5 3           
    ##  6 2           
    ##  7 PP          
    ##  8 CA          
    ##  9 7           
    ## 10 SC/Paris    
    ## # ℹ 33 more rows
…
